{
  "content": [
    {
      "id": "08dce9b3-369c-4177-8426-6e6696402b37",
      "spendDate": "2025-04-12T21:00:00.000+00:00",
      "category": {
        "id": "515db056-b2b2-4b80-bbe3-3a8df28fcc15",
        "name": "Уникальное",
        "username": "niffler_qa",
        "archived": false
      },
      "currency": "RUB",
      "amount": 100.5,
      "description": "Уникальные ботинки",
      "username": "niffler_qa"
    },
    {
      "id": "c9723470-12c9-4b65-b850-a8043a26ac73",
      "spendDate": "2025-04-12T21:00:00.000+00:00",
      "category": {
        "id": "515db056-b2b2-4b80-bbe3-3a8df28fcc15",
        "name": "Уникальное",
        "username": "niffler_qa",
        "archived": false
      },
      "currency": "RUB",
      "amount": 200.0,
      "description": "Уникальные тапочки",
      "username": "niffler_qa"
    },
    {
      "id": "b1385eb7-dc77-4310-8504-2b988cf0609b",
      "spendDate": "2025-04-12T21:00:00.000+00:00",
      "category": {
        "id": "14607355-3b0b-4266-9bec-2b768ee30a7f",
        "name": "Путешествия",
        "username": "niffler_qa",
        "archived": false
      },
      "currency": "KZT",
      "amount": 235.35,
      "description": "Билеты на самолёт",
      "username": "niffler_qa"
    },
    {
      "id": "b46e95ae-c198-4e56-9d36-d4cd43ddd8ac",
      "spendDate": "2024-10-12T21:00:00.000+00:00",
      "category": {
        "id": "162aa096-37ce-454f-b3b7-9fc84d82ad69",
        "name": "Автомобиль",
        "username": "niffler_qa",
        "archived": false
      },
      "currency": "RUB",
      "amount": 147.0,
      "description": "Ahead.",
      "username": "niffler_qa"
    },
    {
      "id": "2b9f735d-2672-4762-a7dc-1c80dc5d054c",
      "spendDate": "2021-05-16T21:00:00.000+00:00",
      "category": {
        "id": "14607355-3b0b-4266-9bec-2b768ee30a7f",
        "name": "Путешествия",
        "username": "niffler_qa",
        "archived": false
      },
      "currency": "USD",
      "amount": 103.0,
      "description": "Answer.",
      "username": "niffler_qa"
    },
    {
      "id": "529b39ac-3904-44ab-90ba-039f4bc8df98",
      "spendDate": "2021-03-30T21:00:00.000+00:00",
      "category": {
        "id": "0f88022c-b1c0-4221-8ac0-4794f0bc279b",
        "name": "Развлечения",
        "username": "niffler_qa",
        "archived": false
      },
      "currency": "KZT",
      "amount": 379.0,
      "description": "Ready turn.",
      "username": "niffler_qa"
    },
    {
      "id": "25ba7e33-d2cb-467a-8e08-5c84e72b2c8c",
      "spendDate": "2016-03-21T21:00:00.000+00:00",
      "category": {
        "id": "0f1375eb-cb5a-42e2-8dc4-06f98c5426e7",
        "name": "Спорт",
        "username": "niffler_qa",
        "archived": false
      },
      "currency": "RUB",
      "amount": 977.0,
      "description": "Enjoy.",
      "username": "niffler_qa"
    },
    {
      "id": "ff07d8da-1e81-46a0-8bb6-02d9a8edbd3e",
      "spendDate": "2011-01-21T21:00:00.000+00:00",
      "category": {
        "id": "14607355-3b0b-4266-9bec-2b768ee30a7f",
        "name": "Путешествия",
        "username": "niffler_qa",
        "archived": false
      },
      "currency": "RUB",
      "amount": 386.0,
      "description": "Know.",
      "username": "niffler_qa"
    },
    {
      "id": "53b7ed6f-fa22-47f8-8b37-f92c65ba76c2",
      "spendDate": "2010-10-30T20:00:00.000+00:00",
      "category": {
        "id": "4dea7a42-72a5-48f5-9499-f1a546839bb0",
        "name": "Продукты",
        "username": "niffler_qa",
        "archived": false
      },
      "currency": "RUB",
      "amount": 952.0,
      "description": "Become drug.",
      "username": "niffler_qa"
    },
    {
      "id": "1be703ac-947c-4c3b-9405-89afcd02cfcf",
      "spendDate": "2001-10-05T20:00:00.000+00:00",
      "category": {
        "id": "0f1375eb-cb5a-42e2-8dc4-06f98c5426e7",
        "name": "Спорт",
        "username": "niffler_qa",
        "archived": false
      },
      "currency": "EUR",
      "amount": 191.0,
      "description": "Poor would.",
      "username": "niffler_qa"
    }
  ],
  "number": 0,
  "size": 10,
  "totalElements": 13,
  "pageable": {
    "pageNumber": 0,
    "pageSize": 10,
    "sort": { "empty": true, "sorted": false, "unsorted": true },
    "offset": 0,
    "paged": true,
    "unpaged": false
  },
  "last": false,
  "totalPages": 2,
  "sort": { "empty": true, "sorted": false, "unsorted": true },
  "first": true,
  "numberOfElements": 10,
  "empty": false
}
